#VRML V1.0 ascii
Separator {
Info {
string "Created by DALTON
date: 13Mar96 16:47:37
" }
Complexity { fields [ SFFloat value ] value 0.5 }
Separator {
Separator {
Complexity { fields [ SFFloat value ] value 0.5 }
Material{ #1
 ambientColor   .300   .300   .300
 diffuseColor   .300   .300   .300
 specularColor 0.800 0.800 0.800
 shininess 0.750 }
Separator {
 Translation { translation   1.197   .691   .000 }
 Sphere { radius  .400 } }
Separator {
 Translation { translation  -1.197   .691   .000 }
 Sphere { radius  .400 } }
Separator {
 Translation { translation   1.197  -.691   .000 }
 Sphere { radius  .400 } }
Separator {
 Translation { translation  -1.197  -.691   .000 }
 Sphere { radius  .400 } }
Separator {
 Translation { translation    .000  1.383   .000 }
 Sphere { radius  .400 } }
Separator {
 Translation { translation    .000 -1.383   .000 }
 Sphere { radius  .400 } }
Material{ #2
 ambientColor   .750   .750   .750
 diffuseColor   .750   .750   .750
 specularColor 0.800 0.800 0.800
 shininess 0.750 }
Separator {
 Translation { translation   2.128  1.228   .000 }
 Sphere { radius  .150 } }
Separator {
 Translation { translation  -2.128  1.228   .000 }
 Sphere { radius  .150 } }
Separator {
 Translation { translation   2.128 -1.228   .000 }
 Sphere { radius  .150 } }
Separator {
 Translation { translation  -2.128 -1.228   .000 }
 Sphere { radius  .150 } }
Separator {
 Translation { translation    .000  2.457   .000 }
 Sphere { radius  .150 } }
Separator {
 Translation { translation    .000 -2.457   .000 }
 Sphere { radius  .150 } }
 }
Separator {
Material{ #3
 ambientColor 0.600 0.600 0.600
 diffuseColor 0.600 0.600 0.600
 specularColor 0.800 0.800 0.800
 shininess 0.750 }
Separator {
 Translation { translation   1.197   .000   .000 }
 Rotation { rotation    .000   .000   .000   .000 }
 Cylinder { parts SIDES radius 0.06 height  .612 } }
Separator {
 Translation { translation    .599  1.037   .000 }
 Rotation { rotation    .000   .000 -1.197  2.094 }
 Cylinder { parts SIDES radius 0.06 height  .612 } }
Separator {
 Translation { translation   1.771  1.022   .000 }
 Rotation { rotation    .000   .000   .930  2.094 }
 Cylinder { parts SIDES radius 0.06 height  .550 } }
Separator {
 Translation { translation  -1.197   .000   .000 }
 Rotation { rotation    .000   .000   .000   .000 }
 Cylinder { parts SIDES radius 0.06 height  .612 } }
Separator {
 Translation { translation   -.599  1.037   .000 }
 Rotation { rotation    .000   .000  1.197  2.094 }
 Cylinder { parts SIDES radius 0.06 height  .612 } }
Separator {
 Translation { translation  -1.771  1.022   .000 }
 Rotation { rotation    .000   .000  -.930  2.094 }
 Cylinder { parts SIDES radius 0.06 height  .550 } }
Separator {
 Translation { translation    .599 -1.037   .000 }
 Rotation { rotation    .000   .000 -1.197  1.047 }
 Cylinder { parts SIDES radius 0.06 height  .612 } }
Separator {
 Translation { translation   1.771 -1.022   .000 }
 Rotation { rotation    .000   .000   .930  1.047 }
 Cylinder { parts SIDES radius 0.06 height  .550 } }
Separator {
 Translation { translation   -.599 -1.037   .000 }
 Rotation { rotation    .000   .000  1.197  1.047 }
 Cylinder { parts SIDES radius 0.06 height  .612 } }
Separator {
 Translation { translation  -1.771 -1.022   .000 }
 Rotation { rotation    .000   .000  -.930  1.047 }
 Cylinder { parts SIDES radius 0.06 height  .550 } }
Separator {
 Translation { translation    .000  2.045   .000 }
 Rotation { rotation    .000   .000   .000  3.142 }
 Cylinder { parts SIDES radius 0.06 height  .550 } }
Separator {
 Translation { translation    .000 -2.045   .000 }
 Rotation { rotation    .000   .000   .000   .000 }
 Cylinder { parts SIDES radius 0.06 height  .550 } }
 }
}
}
